Error, "project1/phase3/CENSOREDpointerPassByRef.rc": 
  Value of type int* not assignable to variable of type int.
Error, "project1/phase3/CENSOREDpointerPassByRef.rc": 
  Argument of type int* not equivalent to reference parameter a, of type int.
Compile: failure.
