Error, "project1/phase3/CENSOREDpointerNull.rc": 
  Size of field MYS cannot be determined at compile time.
Error, "project1/phase3/CENSOREDpointerNull.rc": 
  syntax error near "NULL".
Compile: failure.
