5554
55BA
0DA7
0D95
8588
55A7
0D95
859F
0D7A
855B
5070
C040
533B
537F
D301
032A
D302
032A
D303
032A
D304
032A
D305
032A
D306
032A
D307
032A
D308
D349
036A
D34A
036A
D34B
6400
6000
5077
D040
533F
0327
0320
D301
5740
543F
5472
C490
D452
042A
046A
076A
53A2
03A2
0B9D
8BB8
BB71
53BB
C54E
03AA
C58E
03AA
C5CE
03AA
C60E
03AA
C64E
03AA
C68E
03AA
C6CE
03AA
C70E
5740
BC75
577B
C05D
076A
C09D
076A
C0DD
076A
C11D
076A
C15D
076A
C19D
076A
C1DD
076A
C21D
0055
0096
00D7
0118
0159
019A
01DB
021C
5779
D741
076A
D742
076A
D743
076A
D744
076A
D745
076A
D746
076A
D747
076A
D748
0F5D
5439
5472
C050
D441
076A
042A
046A
539D
0BA2
8BB9
5433
C050
D441
076A
042A
046A
539D
0BA2
0BA2
8BB8
BB71
53A4
C54E
03AA
C58E
03AA
C5CE
03AA
C60E
03AA
C64E
03AA
C68E
03AA
C6CE
03AA
C70E
5740
BC75
5764
C05D
076A
C09D
076A
C0DD
076A
C11D
076A
C15D
076A
C19D
076A
C1DD
076A
C21D
0055
0096
00D7
0118
0159
019A
01DB
021C
5779
D741
076A
D742
076A
D743
076A
D744
076A
D745
076A
D746
076A
D747
076A
D748
5278
D241
D242
D243
D244
D245
D246
D247
D248
1226
1220
8203
6400
6000
507A
0867
6401
6000
541D
5527
1527
0C14
0432
C410
545D
0520
0520
0C54
0472
C451
549D
0522
0C94
04B2
C492
539D
052A
0B94
03B2
C38E
5050
BFAE
5402
5052
BFAF
5482
0412
0411
040E
539D
03B2
D390
076A
539D
0BAC
8382
B831
B80D
54DC
5059
BFBE
04C2
5059
509A
50DB
BFBC
04C4
505D
006D
C041
04C1
505D
0072
C041
04C1
5055
BFA8
5502
5055
5096
50D7
BFB6
0504
571B
56DA
5699
5658
0653
5617
55D6
5595
5553
0554
076A
53AC
0B9D
8382
BFF5
BFD1
F1C8
51C9
B9DF
E9C8
51C9
B9DF
5141
3945
2842
2943
51C1
5205
BFE3
5109
BFDE
5141
5182
2942
2983
2843
51C1
5205
BFE3
51C9
5206
BFE3
5109
BFDE
51C1
5227
BFE5
50C9
51C1
523A
023A
023D
BFE5
5109
51C1
5221
0221
BFE5
51C9
5204
BFE3
51C9
5203
BFE3
5089
BFDE
51C1
523A
023A
BFE5
50C9
51C1
5221
BFE5
5109
51C1
5226
023D
BFE5
51C9
5204
BFE3
51C9
5203
BFE3
5089
BFDE
51C1
523D
BFE5
50C9
51C1
5226
BFE5
51C9
5203
BFE3
51C9
5201
223A
BFE3
5089
BFDE
51C1
522B
BFE5
50C9
51C1
5229
BFE5
51C9
5203
BFE3
51C9
5201
2220
BFE3
5089
BFDE