01bc: false == false
02bd: true == true
03bT: true == true
04bF: false == false
05be: true == true
06bg: true == true
testing greater than
false == false07
true != true08
09ib != ia is true
testing greater than or equal to (both at same value)
true == true10
false == false11
ia == true is true12
true == true is true13
false == false is true14
