Input numeric value for z, current value for z is 12.00 : 78
NEW value of z: 78.00
Input integer value for x, current value for x is 0 : 678
NEW value of x: 678
Input numeric value for a, current value for a is 568.00 : 67
NEW value of a: 67.00
Input integer value for b, current value for b is 46 : 7890
NEW value of b: 7890
Input numeric value for a, current value for a is 67.00 : 56.12
NEW value of a: 56.12