2.5+(-1.0) = 1.50, 1.50
2.5 - (-1.0) = 3.50, 3.50
2.5 * (-1.0) = -2.50, -2.50
2.5 / (-1.0) = -2.50, -2.50
a>b, true
a+b>0, true
2.5>=2.4, true
8.9>=8.9, true
a>=b is true, true
b<=a is true, true
-1.0 <= 0 is true, true
b<a is true, true
3.9 < 10 is true, true
a>b is true
b>a is false
a!=b
a!=b is true
a>b==!false
not b>a is true
a>0 or b >0 is true
