0 is a power of 2: true
1 is a power of 2: true
2 is a power of 2: true
3 is a power of 2: false
4 is a power of 2: true
5 is a power of 2: false
6 is a power of 2: false
7 is a power of 2: false
8 is a power of 2: true
9 is a power of 2: false
10 is a power of 2: false
11 is a power of 2: false
12 is a power of 2: false
13 is a power of 2: false
14 is a power of 2: false
15 is a power of 2: false
16 is a power of 2: true
17 is a power of 2: false
18 is a power of 2: false
19 is a power of 2: false
20 is a power of 2: false
21 is a power of 2: false
22 is a power of 2: false
23 is a power of 2: false
24 is a power of 2: false
25 is a power of 2: false
26 is a power of 2: false
27 is a power of 2: false
28 is a power of 2: false
29 is a power of 2: false
30 is a power of 2: false
31 is a power of 2: false
32 is a power of 2: true
33 is a power of 2: false
34 is a power of 2: false
35 is a power of 2: false
36 is a power of 2: false
37 is a power of 2: false
38 is a power of 2: false
39 is a power of 2: false
40 is a power of 2: false
41 is a power of 2: false
42 is a power of 2: false
43 is a power of 2: false
44 is a power of 2: false
45 is a power of 2: false
46 is a power of 2: false
47 is a power of 2: false
48 is a power of 2: false
49 is a power of 2: false
50 is a power of 2: false
51 is a power of 2: false
52 is a power of 2: false
53 is a power of 2: false
54 is a power of 2: false
55 is a power of 2: false
56 is a power of 2: false
57 is a power of 2: false
58 is a power of 2: false
59 is a power of 2: false
60 is a power of 2: false
61 is a power of 2: false
62 is a power of 2: false
63 is a power of 2: false
64 is a power of 2: true
65 is a power of 2: false
66 is a power of 2: false
67 is a power of 2: false
68 is a power of 2: false
69 is a power of 2: false
70 is a power of 2: false
71 is a power of 2: false
72 is a power of 2: false
73 is a power of 2: false
74 is a power of 2: false
75 is a power of 2: false
76 is a power of 2: false
77 is a power of 2: false
78 is a power of 2: false
79 is a power of 2: false
80 is a power of 2: false
81 is a power of 2: false
82 is a power of 2: false
83 is a power of 2: false
84 is a power of 2: false
85 is a power of 2: false
86 is a power of 2: false
87 is a power of 2: false
88 is a power of 2: false
89 is a power of 2: false
90 is a power of 2: false
91 is a power of 2: false
92 is a power of 2: false
93 is a power of 2: false
94 is a power of 2: false
95 is a power of 2: false
96 is a power of 2: false
97 is a power of 2: false
98 is a power of 2: false
99 is a power of 2: false
