warning this is not to be consruted as offensive, take the quotes as is 
type 55 if you do not want to proced at any time 
Pick the number associated with religious text : 
1 Old Testament 
2 New Testament 
3 Quran 
