456789107 memory leak(s) detected in heap space.
7 memory leak(s) detected in heap space.
7 memory leak(s) detected in heap space.
7 memory leak(s) detected in heap space.
7 memory leak(s) detected in heap space.
7 memory leak(s) detected in heap space.
7 memory leak(s) detected in heap space.
