Casting int to bool: true should be true
Casting float to bool: true should be true
Casting int to float: 1.00 should be 1.00
Casting float to int: 3 should be 3
Casting int to bool: true should be true
Casting float to bool: true should be true
Casting int to float: 2.00 should be 2.00
Casting float to int: 4 should be 4
