﻿<?xml version="1.0" encoding="UTF-8"?>
<TestRun id="40df6d27-e7f5-45f9-9627-e551b38daf20" name="Ben@BEN-PC 2012-09-08 13:19:26" runUser="Ben-PC\Ben" xmlns="http://microsoft.com/schemas/VisualStudio/TeamTest/2010">
  <TestSettings name="Default Test Settings" id="1b6a844f-4222-48e1-9f95-63b127d3264a">
    <Deployment runDeploymentRoot="Ben_BEN-PC 2012-09-08 13_19_26">
      <DeploymentItem filename="C:\Users\Ben\Documents\Visual Studio 2010\Projects\136db\MVC3\bin\MVC3.dll" />
    </Deployment>
    <Execution>
      <TestTypeSpecific />
      <AgentRule name="Execution Agents">
      </AgentRule>
    </Execution>
  </TestSettings>
  <Times creation="2012-09-08T13:19:26.8968263-07:00" queuing="2012-09-08T13:19:28.7429319-07:00" start="2012-09-08T13:19:28.8529382-07:00" finish="2012-09-08T13:19:29.4609729-07:00" />
  <ResultSummary outcome="Failed">
    <Counters total="1" executed="1" error="0" failed="1" timeout="0" aborted="0" inconclusive="0" passedButRunAborted="0" notRunnable="0" notExecuted="0" disconnected="0" warning="0" passed="0" completed="0" inProgress="0" pending="0" />
  </ResultSummary>
  <TestDefinitions>
    <UnitTest name="CreateAccountTest" storage="c:\users\ben\documents\visual studio 2010\projects\136db\mvc3.tests\bin\debug\mvc3.tests.dll" id="b2b6bca4-059d-911e-829e-effc33d92659">
      <Execution id="812fee00-1a76-403d-a6b2-0f1527298d22" />
      <TestMethod codeBase="C:/Users/Ben/Documents/Visual Studio 2010/Projects/136db/MVC3.Tests/bin/Debug/MVC3.Tests.DLL" adapterTypeName="Microsoft.VisualStudio.TestTools.TestTypes.Unit.UnitTestAdapter, Microsoft.VisualStudio.QualityTools.Tips.UnitTest.Adapter, Version=10.0.0.0, Culture=neutral, PublicKeyToken=b03f5f7f11d50a3a" className="MVC3.Tests.Controllers.CreateAccountControllerTest, MVC3.Tests, Version=1.0.0.0, Culture=neutral, PublicKeyToken=null" name="CreateAccountTest" />
    </UnitTest>
  </TestDefinitions>
  <TestLists>
    <TestList name="Results Not in a List" id="8c84fa94-04c1-424b-9868-57a2d4851a1d" />
    <TestList name="All Loaded Results" id="19431567-8539-422a-85d7-44ee4e166bda" />
  </TestLists>
  <TestEntries>
    <TestEntry testId="b2b6bca4-059d-911e-829e-effc33d92659" executionId="812fee00-1a76-403d-a6b2-0f1527298d22" testListId="8c84fa94-04c1-424b-9868-57a2d4851a1d" />
  </TestEntries>
  <Results>
    <UnitTestResult executionId="812fee00-1a76-403d-a6b2-0f1527298d22" testId="b2b6bca4-059d-911e-829e-effc33d92659" testName="CreateAccountTest" computerName="BEN-PC" duration="00:00:00.0956829" startTime="2012-09-08T13:19:28.9549440-07:00" endTime="2012-09-08T13:19:29.4119701-07:00" testType="13cdc9d9-ddb5-4fa4-a97d-d965ccfc6d4b" outcome="Failed" testListId="8c84fa94-04c1-424b-9868-57a2d4851a1d" relativeResultsDirectory="812fee00-1a76-403d-a6b2-0f1527298d22">
      <Output>
        <ErrorInfo>
          <Message>Test method MVC3.Tests.Controllers.CreateAccountControllerTest.CreateAccountTest threw exception: 
System.NullReferenceException: Object reference not set to an instance of an object.</Message>
          <StackTrace>    at MVC3.Tests.Controllers.CreateAccountControllerTest.CreateAccountTest() in C:\Users\Ben\Documents\Visual Studio 2010\Projects\136db\MVC3.Tests\Controllers\CreateAccountControllerTest.cs:line 33
</StackTrace>
        </ErrorInfo>
      </Output>
    </UnitTestResult>
  </Results>
</TestRun>