﻿<?xml version="1.0" encoding="UTF-8"?>
<TestRun id="58eb6cb9-02fd-41e6-9301-463b64925215" name="Ben@BEN-PC 2012-09-08 13:42:16" runUser="Ben-PC\Ben" xmlns="http://microsoft.com/schemas/VisualStudio/TeamTest/2010">
  <TestSettings name="Default Test Settings" id="422b3681-ac36-4f76-a287-02f5b75b6068">
    <Deployment runDeploymentRoot="Ben_BEN-PC 2012-09-08 13_42_16">
      <DeploymentItem filename="C:\Users\Ben\Documents\Visual Studio 2010\Projects\136db\MVC3\bin\MVC3.dll" />
    </Deployment>
    <Execution>
      <TestTypeSpecific />
      <AgentRule name="Execution Agents">
      </AgentRule>
    </Execution>
  </TestSettings>
  <Times creation="2012-09-08T13:42:16.9611895-07:00" queuing="2012-09-08T13:42:17.8522404-07:00" start="2012-09-08T13:42:17.9482459-07:00" finish="2012-09-08T13:42:30.7039755-07:00" />
  <ResultSummary outcome="Error">
    <Counters total="1" executed="1" error="0" failed="0" timeout="0" aborted="1" inconclusive="0" passedButRunAborted="0" notRunnable="0" notExecuted="0" disconnected="0" warning="0" passed="0" completed="0" inProgress="0" pending="0" />
    <RunInfos>
      <RunInfo computerName="BEN-PC" outcome="Error" timestamp="2012-09-08T13:42:30.7039755-07:00">
        <Text>Test host process exited unexpectedly.</Text>
      </RunInfo>
    </RunInfos>
  </ResultSummary>
  <TestDefinitions>
    <UnitTest name="LoginTest" storage="c:\users\ben\documents\visual studio 2010\projects\136db\mvc3.tests\bin\debug\mvc3.tests.dll" id="89201b8a-ef0b-cc9b-0ea8-f53eab7205c4">
      <Execution id="50f16411-b94a-4db9-87e2-c0bd40dd1f71" />
      <TestMethod codeBase="C:/Users/Ben/Documents/Visual Studio 2010/Projects/136db/MVC3.Tests/bin/Debug/MVC3.Tests.DLL" adapterTypeName="Microsoft.VisualStudio.TestTools.TestTypes.Unit.UnitTestAdapter, Microsoft.VisualStudio.QualityTools.Tips.UnitTest.Adapter, Version=10.0.0.0, Culture=neutral, PublicKeyToken=b03f5f7f11d50a3a" className="MVC3.Tests.Controllers.LoginControllerTest, MVC3.Tests, Version=1.0.0.0, Culture=neutral, PublicKeyToken=null" name="LoginTest" />
    </UnitTest>
  </TestDefinitions>
  <TestLists>
    <TestList name="Results Not in a List" id="8c84fa94-04c1-424b-9868-57a2d4851a1d" />
    <TestList name="All Loaded Results" id="19431567-8539-422a-85d7-44ee4e166bda" />
  </TestLists>
  <TestEntries>
    <TestEntry testId="89201b8a-ef0b-cc9b-0ea8-f53eab7205c4" executionId="50f16411-b94a-4db9-87e2-c0bd40dd1f71" testListId="8c84fa94-04c1-424b-9868-57a2d4851a1d" />
  </TestEntries>
  <Results>
    <UnitTestResult executionId="50f16411-b94a-4db9-87e2-c0bd40dd1f71" testId="89201b8a-ef0b-cc9b-0ea8-f53eab7205c4" testName="LoginTest" computerName="BEN-PC" duration="00:00:12.6187217" startTime="2012-09-08T13:42:18.0852538-07:00" endTime="2012-09-08T13:42:30.7039755-07:00" testType="13cdc9d9-ddb5-4fa4-a97d-d965ccfc6d4b" outcome="Aborted" testListId="8c84fa94-04c1-424b-9868-57a2d4851a1d" relativeResultsDirectory="50f16411-b94a-4db9-87e2-c0bd40dd1f71">
    </UnitTestResult>
  </Results>
</TestRun>