﻿<?xml version="1.0" encoding="UTF-8"?>
<TestRun id="f9efa77b-9da3-49a9-92f1-043487d25735" name="Ben@BEN-PC 2012-09-08 13:22:57" runUser="Ben-PC\Ben" xmlns="http://microsoft.com/schemas/VisualStudio/TeamTest/2010">
  <TestSettings name="Default Test Settings" id="1ab4eed8-5b49-4b8f-915c-64b280450d01">
    <Deployment runDeploymentRoot="Ben_BEN-PC 2012-09-08 13_22_57">
      <DeploymentItem filename="C:\Users\Ben\Documents\Visual Studio 2010\Projects\136db\MVC3\bin\MVC3.dll" />
    </Deployment>
    <Execution>
      <TestTypeSpecific />
      <AgentRule name="Execution Agents">
      </AgentRule>
    </Execution>
  </TestSettings>
  <Times creation="2012-09-08T13:22:57.6088783-07:00" queuing="2012-09-08T13:22:57.7998892-07:00" start="2012-09-08T13:22:57.8028894-07:00" finish="2012-09-08T13:22:58.0349027-07:00" />
  <ResultSummary outcome="Completed">
    <Counters total="1" executed="1" passed="1" error="0" failed="0" timeout="0" aborted="0" inconclusive="0" passedButRunAborted="0" notRunnable="0" notExecuted="0" disconnected="0" warning="0" completed="0" inProgress="0" pending="0" />
  </ResultSummary>
  <TestDefinitions>
    <UnitTest name="CreateAccountTest" storage="c:\users\ben\documents\visual studio 2010\projects\136db\mvc3.tests\bin\debug\mvc3.tests.dll" id="b2b6bca4-059d-911e-829e-effc33d92659">
      <Execution id="c6cc18d7-559e-456e-aca3-12fda772e491" />
      <TestMethod codeBase="C:/Users/Ben/Documents/Visual Studio 2010/Projects/136db/MVC3.Tests/bin/Debug/MVC3.Tests.DLL" adapterTypeName="Microsoft.VisualStudio.TestTools.TestTypes.Unit.UnitTestAdapter, Microsoft.VisualStudio.QualityTools.Tips.UnitTest.Adapter, Version=10.0.0.0, Culture=neutral, PublicKeyToken=b03f5f7f11d50a3a" className="MVC3.Tests.Controllers.CreateAccountControllerTest, MVC3.Tests, Version=1.0.0.0, Culture=neutral, PublicKeyToken=null" name="CreateAccountTest" />
    </UnitTest>
  </TestDefinitions>
  <TestLists>
    <TestList name="Results Not in a List" id="8c84fa94-04c1-424b-9868-57a2d4851a1d" />
    <TestList name="All Loaded Results" id="19431567-8539-422a-85d7-44ee4e166bda" />
  </TestLists>
  <TestEntries>
    <TestEntry testId="b2b6bca4-059d-911e-829e-effc33d92659" executionId="c6cc18d7-559e-456e-aca3-12fda772e491" testListId="8c84fa94-04c1-424b-9868-57a2d4851a1d" />
  </TestEntries>
  <Results>
    <UnitTestResult executionId="c6cc18d7-559e-456e-aca3-12fda772e491" testId="b2b6bca4-059d-911e-829e-effc33d92659" testName="CreateAccountTest" computerName="BEN-PC" duration="00:00:00.0871738" startTime="2012-09-08T13:22:57.8048895-07:00" endTime="2012-09-08T13:22:58.0249021-07:00" testType="13cdc9d9-ddb5-4fa4-a97d-d965ccfc6d4b" outcome="Passed" testListId="8c84fa94-04c1-424b-9868-57a2d4851a1d" relativeResultsDirectory="c6cc18d7-559e-456e-aca3-12fda772e491">
    </UnitTestResult>
  </Results>
</TestRun>