Error, "project2/ec/tcas-extraParamsBasicTypes.rc", line 67: 
  redeclared identifier 'i'.
Error, "project2/ec/tcas-extraParamsBasicTypes.rc", line 68: 
  Value of type bool not assignable to variable of type int.
Error, "project2/ec/tcas-extraParamsBasicTypes.rc", line 69: 
  Argument of type int not equivalent to reference parameter ix, of type bool.
Compile: failure.
