
State Machine - |L3C145|state
Name state.00011 state.00010 state.00001 state.00000 state.01011 state.00101 
state.00000 0 0 0 0 0 0 
state.00001 0 0 1 1 0 0 
state.00010 0 1 0 1 0 0 
state.00011 1 0 0 1 0 0 
state.00101 0 0 0 1 0 1 
state.01011 0 0 0 1 1 0 
