Break executed!
First level
Nested!! 100
First level
Nested!! 99
First level
Nested!! 98
First level
Nested!! 97
First level
Nested!! 96
First level
Nested!! 95
First level
Nested!! 94
Break executed!
