in fun 4 times left.
in fun 3 times left.
in fun 2 times left.
in fun 1 times left.
in fun 0 times left.
am i going to break? 6
am i going to break? 5
am i going to break? 4
am i going to break? 3
am i going to break? 2
break at 2
