testing greater than
false == false
true == true
ib > ia is true
testing greater than or equal to
false == false
true == true
ib >= ia is true
testing greater than or equal to (both at same value)
true == true
true == true
ia >= ic is true
ic >= ia is true
