Error, "project1/phase0/example.rc": 
  Return required in function, none found.
Error, "project1/phase0/example.rc": 
  Return required in function, none found.
Error, "project1/phase0/example.rc": 
  Value of type float not assignable to variable of type INTEGER.
Error, "project1/phase0/example.rc": 
  Argument of type REC2 not equivalent to reference parameter a, of type REC3.
Error, "project1/phase0/example.rc": 
  Value of type float[5] not assignable to variable of type float.
Error, "project1/phase0/example.rc": 
  Value of type REC3 not assignable to variable of type REC3.
Error, "project1/phase0/example.rc": 
  Value of type REC2 not assignable to variable of type REC3.
Error, "project1/phase0/example.rc": 
  Value of type REC3 not assignable to variable of type REC3.
Error, "project1/phase0/example.rc": 
  Value of type REC2* not assignable to variable of type REC3*.
Compile: failure.
