Output format (expected, actual)
1 | 2 = (3, 3)
2 | 4 = (6, 6)
3 | 4 = (7, 7)
6 | 4 = (6, 6)
8 | 2 = (10, 10)
5073 | 926 = (5087, 5087)
911 | 8675309 = (8675311, 8675311)
789 | 10 = (799, 799)
1 | i_2 = (3, 3)
i_2 | 4 = (6, 6)
i_3 | i_4 = (7, 7)
i_6 | i_4 = (6, 6)
8 | i_2 = (10, 10)
i_5073 | i_926 = (5087, 5087)
i_911 | i_8675309 = (8675311, 8675311)
i_789 | i_10 = (799, 799)
