3 - 3 = 0
i - k = -1
i - m = 0
k - m = 1

3.0 - 3.0 = 0.00
3.01 - 3.3201 = -0.31
j - l = 1.10
j - n = 2.20
l - n = 1.10

3.0 - 3 = 0.00
j - m = 2.70
l - k = 0.60
n - i = 0.50

3 - 3.0 = 0.00
m - j = -2.70
k - l = -0.60
i - n = -0.50
