Output format (actual, expected) 
false || false = (false, false)
false || true = (true, true)
true || false = (true, true)
true || true = (true, true)
false || _false = (false, false)
_false || true = (true, true)
_true || _false = (true, true)
_true || _true = (true, true)
