3 + 3 = 6
i + k = 11
i + m = 10
k + m = 11

3.0 + 3.0 = 6.00
3.01 + 3.3201 = 6.33
j + l = 14.30
j + n = 13.20
l + n = 12.10

3.0 + 3 = 6.00
j + m = 12.70
l + k = 12.60
n + i = 10.50

3 + 3.0 = 6.00
m + j = 12.70
k + l = 12.60
i + n = 10.50
