Output format (expected, actual)
Variable declarations: 
int i1 = 1, i2 = 2, i3 = 3 
float f1 = 1.1, f2 = 2.2, f3 = 3.3 
Const test
1 >= 1 = (true , true)
1 >= 2 = (false,  false)
2 >= 1 = (true, true)
1.1 >= 1.1 = (true, true)
1.1 >= 2.1 = (false, false)
2.1 >= 1.1 = (true, true)
Variables tests
i1 >= 1 = (true , true)
1 >= i2 = (false,  false)
i2 >= i1 = (true, true)
f1 >= 1.1 = (true, true)
1.1 >= f2 = (false, false)
f2 >= f1 = (true, true)
Type promotions & mismatches
i1 >= f1 = (false, false)
f1 >= i1 = (true, true)
i1 >= 1 = (true, true)
1 >= f1 = (false, false)
