Output format (expected, actual)
Variable declarations: 
int i1 = 1, i2 = 2, i3 = 3 
float f1 = 1.1, f2 = 2.2, f3 = 3.3 
Const test
1 <= 1 = (true , true)
1 <= 2 = (true,  true)
2 <= 1 = (false, false)
1.1 <= 1.1 = (true, true)
1.1 <= 2.1 = (true, true)
2.1 <= 1.1 = (false, false)
Variables tests
i1 <= 1 = (true , true)
1 <= i2 = (true,  true)
i2 <= i1 = (false, false)
f1 <= 1.1 = (true, true)
1.1 <= f2 = (true, true)
f2 <= f1 = (false, false)
Type promotions & mismatches
i1 <= f1 = (true, true)
f1 <= i1 = (false, false)
i1 <= 1 = (true, true)
1 <= f1 = (true, true)
