Error, "tests/phase1//check02mbaw-constantfolding-numeric.rc": 
  Invalid operand to sizeof. Not a type or not addressable.
Error, "tests/phase1//check02mbaw-constantfolding-numeric.rc": 
  
Compile: failure.
