Variable Declarations
int x = 5
float f = 2.75
Constant test 
int op int
1 / 2 = 0
Float promotion w/consts
1 / 2.1 = 0.48
2.1 / 1 = 2.10
Variable tests
x / 7 = 0
7 / x = 1
x / 2.1 = 2.38
2.1 / x = 0.42
f / 5 = 0.55
5 / f = 1.82
f / x = 0.55
x / f = 1.82
