Output format: (expected, actual) 
Const fold test
false && false = (false, false)
false && true = (false, false)
true && false = (false, false)
true && true = (true, true)
Variable declarations: 
bool _true = true, _false = false 
_false && _false = (false, false)
_false && false = (false, false)
false && _false = (false, false)
_false && _true = (false, false)
_true && _false = (false, false)
_true && _true = (true, true)
