7th element: 699 (should be 699)
8th element: 799.00 (should be 799.00)
9th element: 900 (should be 900)
10th element: 1000.00 (should be 1000.00)
7th element: 699 (should be 699)
8th element: 799.00 (should be 799.00)
9th element: 900 (should be 900)
10th element: 1000.00 (should be 1000.00)
