Variable declarations
int i_1 = 1, i_2 = 2 
float f_1_1 = 1.1, f_2_2 = 2.2, f_1point0 = 1.0 
bool _true = true, _false = false 
Output format (expected, actual)
Const test
1 == 1 = (true, true)
1 == 2 = (false, false)
1 == 1.1 = (false, false)
1 == 1.0 = (true, true)
1.1 == 1 = (false, false)
true == false = (false, false)
1 == 1.1 = (false, false)
Variable tests
i_1 == 1 = (true, true)
i_1 == i_2 = (false, false)
2 == i_1 = (false, false)
1 == i_1 = (true, true)
f_1_1 == i_1 = (false, false)
i_1 == f_1_1 = (false, false)
f_1_1 == 1.1 = (true, true)
f_1_1 == 2.2 = (false, false)
f_1_1 == f_2_2 = (false, false)
1.1 == f_1_1 = (true, true)
i_1 == i_1 = (true, true)
i_1 == 1.0 = (true, true)
i_1 == f_1point0 = (true, true)
f_1point0 == i_1 = (true, true)
f_1_1 == f_1_1 = (true, true)
_true == _true = (true, true)
_true == true = (true, true)
true == _true = (true, true)
_true == false = (false, false)
_false == _true = (false, false)
