Global Int gi_x: 12 (should print 12)
Global Int gi_xx: 21 (should print 21)
Global Float gf_y: 12.10 (should print 12.10)
Global Float gf_yy: 21.20 (should print 21.20)
Static Int si_x: 34 (should print 34)
Static Int si_xx: 43 (should print 43)
Static Float sf_y: 34.30 (should print 34.30)
Static Float sf_yy: 43.40 (should print 43.40)
Local Int li_x: 56 (should print 56)
Local Int li_xx: 65 (should print 65)
Local Float lf_y: 56.50 (should print 56.50)
Local Float lf_yy: 65.60 (should print 65.60)
Result of z: 102 (should print 102)
