1 != 2 = (true, true)
1 != 1 = (false, false)
i1 != 2 = (true, true)
i1 != 1 = (false, false)
1 != i2 = (true, true)
2 != i2 = (false, false)
i1 != i2 = (true, true)
i1 != i1 = (false, false)
1.1 != 2.2 = (true, true)
1.1 != 1.1 = (false, false)
f1 !=  2.2 = (true, true)
f1 != 1.1 = (false, false)
1.1 != f2  = (true, true)
1.1 != f1  = (false, false)
 f1 != f2 = (true, true)
 f1 != f1 = (false, false)
 true != false = (true, true)
 true != true = (false, false)
 _true != false = (true, true)
 _true != true = (false, false)
 true != _false = (true, true)
 true != _true = (false, false)
 _true != _false = (true, true)
 _true != _true = (false, false)
 1 != 1.1 = (true, true)
 1 != 1.0 = (false, false)
 i1 != 1.1 = (true, true)
 i1 != 1.0 = (false, false)
 1 != f1 = (true, true)
 1 != f0 = (false, false)
 i1 != f1 = (true, true)
 i1 != f0 = (false, false)
 1.1 != 1 = (true, true)
 1.0 != 1 = (false, false)
 1.1 != i1 = (true, true)
 1.0 != i1 = (false, false)
 f1 != 1 = (true, true)
 f0 != 1 = (false, false)
 f1 != i1 = (true, true)
 f0 != i1 = (false, false)
