Variable Declarations
int x = 5
float f = 2.75
Constant test 
int op int
1 * 2 = 2
Float promotion w/consts
1 * 2.1 = 2.10
2.1 * 1 = 2.10
Variable tests
x * 7 = 35
7 * x = 35
x * 2.1 = 10.50
2.1 * x = 10.50
f * 5 = 13.75
5 * f = 13.75
f * x = 13.75
x * f = 13.75
