global x = 0.00, 0.00
call foo() = 0.40, global x=0.00, 0.00
static y=0.00, 0.00
global a=1.20, 1.20
global b=3.20, 3.20
9.70, 9.70
local c assigned =9.30, 9.30
0.40
global const globalvar = 0.40, 0.40
z = 0.80, 0.80
