 type cast of bool to int works. a1 = 1
type cast of bool to int does work. b1 = 0
type cast of bool to float does work. c1 = 1.00
type cast of bool to float does work. d1 = 0.00
type cast of int to bool does work. f1 = true
type cast of int to bool does work. f1 = false
 type cast of float to bool works. r1 = true
type cast of float to bool does work. r1 = false
 type cast of float to int does works. fr1 = 5
