Globals 
true
true
true
true
true
true
false
true
true
true
true
false
false
true
true
true
true
true
false
false
false
true
false
false
true
Locals 
true
true
true
true
true
true
false
true
true
true
true
false
false
true
true
true
true
true
false
false
false
true
false
false
true
