0
-4199376
1
-4199392
2
-4199392
Current Struct Info
i = 0 = 0
f = 0.00 = 0.00
b = true = true

Next Struct Info
i = 1 = 1
f = 1.00 = 1.00
b = true = true

Current Struct Info
i = 1 = 1
f = 1.00 = 1.00
b = true = true

Next Struct Info
i = 2 = 2
f = 4.00 = 4.00
b = true = true

Current Struct Info
i = 2 = 2
f = 4.00 = 4.00
b = true = true

Next Struct Info
i = 0 = 0
f = 0.00 = 0.00
b = true = true

