Umix (User-Mode Unix) CSE120 Instructional OS v. 2.37 [11/16/13-7:53PM] 495

Th	Fib : #
YieldThread: 10 is not a valid thread ID
YieldThread: 11 is not a valid thread ID
YieldThread: 12 is not a valid thread ID
YieldThread: 13 is not a valid thread ID
YieldThread: Thread 4 does not exist
9	  1 : 0
2	  2 : 1
3	  3 : 1
4	  4 : 2
5	  5 : 3
0	  6 : 5
1	  7 : 8
6	  8 : 13
7	  9 : 21
8	 10 : 34
9	 11 : 55
2	 12 : 89
3	 13 : 144
4	 14 : 233
5	 15 : 377
0	 16 : 610
1	 17 : 987
6	 18 : 1597
7	 19 : 2584
8	 20 : 4181
9	 21 : 6765
2	 22 : 10946
3	 23 : 17711
4	 24 : 28657
5	 25 : 46368
0	 26 : 75025
1	 27 : 121393
6	 28 : 196418
7	 29 : 317811
8	 30 : 514229
9	 31 : 832040
2	 32 : 1346269
3	 33 : 2178309
4	 34 : 3524578
5	 35 : 5702887
0	 36 : 9227465
1	 37 : 14930352
6	 38 : 24157817
7	 39 : 39088169
8	 40 : 63245986
9	 41 : 102334155
2	 42 : 165580141
3	 43 : 267914296
4	 44 : 433494437
5	 45 : 701408733
0	 46 : 1134903170
1	 47 : 1836311903
6	 48 : -1323752223
7	 49 : 512559680
8	 50 : -811192543
9	 51 : -298632863
2	 52 : -1109825406
3	 53 : -1408458269
4	 54 : 1776683621
5	 55 : 368225352
0	 56 : 2144908973
1	 57 : -1781832971

System exiting (normal)
