testing greater than
false == false1
true == true2
ib < ia is true3
testing greater than or equal to
false == false4
true == true5
ib <= ia is true6
testing greater than or equal to (both at same value)
true == true7
true == true8
ia <= ic is true9
ic <= ia is true10
