8/22/2012 2:57:56 PM	This log contains information about the import operation of the script 'script.sql' into project '136db' on computer 'BEN-PC' by user'Ben.
8/22/2012 2:57:56 PM	Started importing file: C:\Users\Ben\Desktop\script.sql 
8/22/2012 2:57:56 PM	File name C:\Users\Ben\Desktop\script.sql (size: 56702)
8/22/2012 2:57:56 PM	Parsing import script
8/22/2012 2:57:56 PM	Total number of batches in script: 150
8/22/2012 2:57:56 PM	Total number of statements in script: 150
8/22/2012 2:57:56 PM	The script was successfully imported into the project.
8/22/2012 2:57:56 PM	Analyzing schema objects...
8/22/2012 2:57:56 PM	Scanning project for duplicate elements
8/22/2012 2:57:56 PM	Element 'FK_Song_User' was merged into the existing script: 'C:\USERS\BEN\DOCUMENTS\VISUAL STUDIO 2010\PROJECTS\136DB\136DB\SCHEMA OBJECTS\SCHEMAS\DBO\TABLES\SONG.TABLE.SQL'.
8/22/2012 2:57:56 PM	Element 'FK_Song_Genre' was merged into the existing script: 'C:\USERS\BEN\DOCUMENTS\VISUAL STUDIO 2010\PROJECTS\136DB\136DB\SCHEMA OBJECTS\SCHEMAS\DBO\TABLES\SONG.TABLE.SQL'.
8/22/2012 2:57:56 PM	Element 'FK_Song_Artist' was merged into the existing script: 'C:\USERS\BEN\DOCUMENTS\VISUAL STUDIO 2010\PROJECTS\136DB\136DB\SCHEMA OBJECTS\SCHEMAS\DBO\TABLES\SONG.TABLE.SQL'.
8/22/2012 2:57:56 PM	Element 'FK_Song_Album' was merged into the existing script: 'C:\USERS\BEN\DOCUMENTS\VISUAL STUDIO 2010\PROJECTS\136DB\136DB\SCHEMA OBJECTS\SCHEMAS\DBO\TABLES\SONG.TABLE.SQL'.
8/22/2012 2:57:56 PM	Element 'insert_song' was merged into the existing script: 'C:\USERS\BEN\DOCUMENTS\VISUAL STUDIO 2010\PROJECTS\136DB\136DB\SCHEMA OBJECTS\SCHEMAS\DBO\PROGRAMMABILITY\STORED PROCEDURES\INSERT_SONG.PROC.SQL'.
8/22/2012 2:57:56 PM	Element 'update_song' was merged into the existing script: 'C:\USERS\BEN\DOCUMENTS\VISUAL STUDIO 2010\PROJECTS\136DB\136DB\SCHEMA OBJECTS\SCHEMAS\DBO\PROGRAMMABILITY\STORED PROCEDURES\UPDATE_SONG.PROC.SQL'.
8/22/2012 2:57:56 PM	Element 'update_download_count' was merged into the existing script: 'C:\USERS\BEN\DOCUMENTS\VISUAL STUDIO 2010\PROJECTS\136DB\136DB\SCHEMA OBJECTS\SCHEMAS\DBO\PROGRAMMABILITY\STORED PROCEDURES\UPDATE_DOWNLOAD_COUNT.PROC.SQL'.
8/22/2012 2:57:56 PM	Element 'insert_user' was merged into the existing script: 'C:\USERS\BEN\DOCUMENTS\VISUAL STUDIO 2010\PROJECTS\136DB\136DB\SCHEMA OBJECTS\SCHEMAS\DBO\PROGRAMMABILITY\STORED PROCEDURES\INSERT_USER.PROC.SQL'.
8/22/2012 2:57:56 PM	Element 'get_song_data' was merged into the existing script: 'C:\USERS\BEN\DOCUMENTS\VISUAL STUDIO 2010\PROJECTS\136DB\136DB\SCHEMA OBJECTS\SCHEMAS\DBO\PROGRAMMABILITY\STORED PROCEDURES\GET_SONG_DATA.PROC.SQL'.
8/22/2012 2:57:56 PM	Element 'insert_album' was merged into the existing script: 'C:\USERS\BEN\DOCUMENTS\VISUAL STUDIO 2010\PROJECTS\136DB\136DB\SCHEMA OBJECTS\SCHEMAS\DBO\PROGRAMMABILITY\STORED PROCEDURES\INSERT_ALBUM.PROC.SQL'.
8/22/2012 2:57:56 PM	Element 'insert_artist' was merged into the existing script: 'C:\USERS\BEN\DOCUMENTS\VISUAL STUDIO 2010\PROJECTS\136DB\136DB\SCHEMA OBJECTS\SCHEMAS\DBO\PROGRAMMABILITY\STORED PROCEDURES\INSERT_ARTIST.PROC.SQL'.
8/22/2012 2:57:56 PM	Element 'insert_genre' was merged into the existing script: 'C:\USERS\BEN\DOCUMENTS\VISUAL STUDIO 2010\PROJECTS\136DB\136DB\SCHEMA OBJECTS\SCHEMAS\DBO\PROGRAMMABILITY\STORED PROCEDURES\INSERT_GENRE.PROC.SQL'.
8/22/2012 2:57:56 PM	Element 'select_by_album' was merged into the existing script: 'C:\USERS\BEN\DOCUMENTS\VISUAL STUDIO 2010\PROJECTS\136DB\136DB\SCHEMA OBJECTS\SCHEMAS\DBO\PROGRAMMABILITY\STORED PROCEDURES\SELECT_BY_ALBUM.PROC.SQL'.
8/22/2012 2:57:56 PM	Element 'select_by_artist' was merged into the existing script: 'C:\USERS\BEN\DOCUMENTS\VISUAL STUDIO 2010\PROJECTS\136DB\136DB\SCHEMA OBJECTS\SCHEMAS\DBO\PROGRAMMABILITY\STORED PROCEDURES\SELECT_BY_ARTIST.PROC.SQL'.
8/22/2012 2:57:56 PM	Element 'select_by_genre' was merged into the existing script: 'C:\USERS\BEN\DOCUMENTS\VISUAL STUDIO 2010\PROJECTS\136DB\136DB\SCHEMA OBJECTS\SCHEMAS\DBO\PROGRAMMABILITY\STORED PROCEDURES\SELECT_BY_GENRE.PROC.SQL'.
8/22/2012 2:57:56 PM	Element 'select_by_song_name' was merged into the existing script: 'C:\USERS\BEN\DOCUMENTS\VISUAL STUDIO 2010\PROJECTS\136DB\136DB\SCHEMA OBJECTS\SCHEMAS\DBO\PROGRAMMABILITY\STORED PROCEDURES\SELECT_BY_SONG_NAME.PROC.SQL'.
8/22/2012 2:57:56 PM	Element 'select_by_user' was merged into the existing script: 'C:\USERS\BEN\DOCUMENTS\VISUAL STUDIO 2010\PROJECTS\136DB\136DB\SCHEMA OBJECTS\SCHEMAS\DBO\PROGRAMMABILITY\STORED PROCEDURES\SELECT_BY_USER.PROC.SQL'.
8/22/2012 2:57:56 PM	Element 'clear_database' was merged into the existing script: 'C:\USERS\BEN\DOCUMENTS\VISUAL STUDIO 2010\PROJECTS\136DB\136DB\SCHEMA OBJECTS\SCHEMAS\DBO\PROGRAMMABILITY\STORED PROCEDURES\CLEAR_DATABASE.PROC.SQL'.
8/22/2012 2:57:56 PM	Element 'delete_song' was merged into the existing script: 'C:\USERS\BEN\DOCUMENTS\VISUAL STUDIO 2010\PROJECTS\136DB\136DB\SCHEMA OBJECTS\SCHEMAS\DBO\PROGRAMMABILITY\STORED PROCEDURES\DELETE_SONG.PROC.SQL'.
8/22/2012 2:57:56 PM	Element 'get_download_count' was merged into the existing script: 'C:\USERS\BEN\DOCUMENTS\VISUAL STUDIO 2010\PROJECTS\136DB\136DB\SCHEMA OBJECTS\SCHEMAS\DBO\PROGRAMMABILITY\STORED PROCEDURES\GET_DOWNLOAD_COUNT.PROC.SQL'.
8/22/2012 2:57:56 PM	Element 'get_login_info' was merged into the existing script: 'C:\USERS\BEN\DOCUMENTS\VISUAL STUDIO 2010\PROJECTS\136DB\136DB\SCHEMA OBJECTS\SCHEMAS\DBO\PROGRAMMABILITY\STORED PROCEDURES\GET_LOGIN_INFO.PROC.SQL'.
8/22/2012 2:57:56 PM	Element 'get_next_id' was merged into the existing script: 'C:\USERS\BEN\DOCUMENTS\VISUAL STUDIO 2010\PROJECTS\136DB\136DB\SCHEMA OBJECTS\SCHEMAS\DBO\PROGRAMMABILITY\STORED PROCEDURES\GET_NEXT_ID.PROC.SQL'.
8/22/2012 2:57:56 PM	Element 'delete_user' was merged into the existing script: 'C:\USERS\BEN\DOCUMENTS\VISUAL STUDIO 2010\PROJECTS\136DB\136DB\SCHEMA OBJECTS\SCHEMAS\DBO\PROGRAMMABILITY\STORED PROCEDURES\DELETE_USER.PROC.SQL'.
8/22/2012 2:57:56 PM	Element 'delete_album' was merged into the existing script: 'C:\USERS\BEN\DOCUMENTS\VISUAL STUDIO 2010\PROJECTS\136DB\136DB\SCHEMA OBJECTS\SCHEMAS\DBO\PROGRAMMABILITY\STORED PROCEDURES\DELETE_ALBUM.PROC.SQL'.
8/22/2012 2:57:56 PM	Element 'delete_artist' was merged into the existing script: 'C:\USERS\BEN\DOCUMENTS\VISUAL STUDIO 2010\PROJECTS\136DB\136DB\SCHEMA OBJECTS\SCHEMAS\DBO\PROGRAMMABILITY\STORED PROCEDURES\DELETE_ARTIST.PROC.SQL'.
8/22/2012 2:57:56 PM	Element 'delete_genre' was merged into the existing script: 'C:\USERS\BEN\DOCUMENTS\VISUAL STUDIO 2010\PROJECTS\136DB\136DB\SCHEMA OBJECTS\SCHEMAS\DBO\PROGRAMMABILITY\STORED PROCEDURES\DELETE_GENRE.PROC.SQL'.
8/22/2012 2:57:56 PM	Element 'get_user_data' was merged into the existing script: 'C:\USERS\BEN\DOCUMENTS\VISUAL STUDIO 2010\PROJECTS\136DB\136DB\SCHEMA OBJECTS\SCHEMAS\DBO\PROGRAMMABILITY\STORED PROCEDURES\GET_USER_DATA.PROC.SQL'.
8/22/2012 2:57:56 PM	Element 'get_user_list' was merged into the existing script: 'C:\USERS\BEN\DOCUMENTS\VISUAL STUDIO 2010\PROJECTS\136DB\136DB\SCHEMA OBJECTS\SCHEMAS\DBO\PROGRAMMABILITY\STORED PROCEDURES\GET_USER_LIST.PROC.SQL'.
8/22/2012 2:57:56 PM	Element 'init_next_id_table' was merged into the existing script: 'C:\USERS\BEN\DOCUMENTS\VISUAL STUDIO 2010\PROJECTS\136DB\136DB\SCHEMA OBJECTS\SCHEMAS\DBO\PROGRAMMABILITY\STORED PROCEDURES\INIT_NEXT_ID_TABLE.PROC.SQL'.
8/22/2012 2:57:56 PM	Element 'update_user' was merged into the existing script: 'C:\USERS\BEN\DOCUMENTS\VISUAL STUDIO 2010\PROJECTS\136DB\136DB\SCHEMA OBJECTS\SCHEMAS\DBO\PROGRAMMABILITY\STORED PROCEDURES\UPDATE_USER.PROC.SQL'.
8/22/2012 2:57:56 PM	Element 'Song' was merged into the existing script: 'C:\USERS\BEN\DOCUMENTS\VISUAL STUDIO 2010\PROJECTS\136DB\136DB\SCHEMA OBJECTS\SCHEMAS\DBO\TABLES\SONG.TABLE.SQL'.
8/22/2012 2:57:56 PM	Element 'User' was merged into the existing script: 'C:\USERS\BEN\DOCUMENTS\VISUAL STUDIO 2010\PROJECTS\136DB\136DB\SCHEMA OBJECTS\SCHEMAS\DBO\TABLES\USER.TABLE.SQL'.
8/22/2012 2:57:56 PM	Element 'next_id_table' was merged into the existing script: 'C:\USERS\BEN\DOCUMENTS\VISUAL STUDIO 2010\PROJECTS\136DB\136DB\SCHEMA OBJECTS\SCHEMAS\DBO\TABLES\NEXT_ID_TABLE.TABLE.SQL'.
8/22/2012 2:57:56 PM	Element 'Album' was merged into the existing script: 'C:\USERS\BEN\DOCUMENTS\VISUAL STUDIO 2010\PROJECTS\136DB\136DB\SCHEMA OBJECTS\SCHEMAS\DBO\TABLES\ALBUM.TABLE.SQL'.
8/22/2012 2:57:56 PM	Element 'Artist' was merged into the existing script: 'C:\USERS\BEN\DOCUMENTS\VISUAL STUDIO 2010\PROJECTS\136DB\136DB\SCHEMA OBJECTS\SCHEMAS\DBO\TABLES\ARTIST.TABLE.SQL'.
8/22/2012 2:57:56 PM	Element 'Genre' was merged into the existing script: 'C:\USERS\BEN\DOCUMENTS\VISUAL STUDIO 2010\PROJECTS\136DB\136DB\SCHEMA OBJECTS\SCHEMAS\DBO\TABLES\GENRE.TABLE.SQL'.
8/22/2012 2:57:56 PM	Finished duplicate element processing
8/22/2012 2:57:56 PM	In the script that you provided to the import operation, one or more statements were not fully understood. These statements were moved to the C:\Users\Ben\Documents\Visual Studio 2010\Projects\136db\136db\Scripts\ScriptsIgnoredOnImport.sql file. Review the file contents for additional information.
8/22/2012 2:57:56 PM	A summary of the import operation was saved to the log file C:\Users\Ben\Documents\Visual Studio 2010\Projects\136db\136db\Import Script Logs\script_sql_20120822095756.log.
8/22/2012 2:57:56 PM	Click Finish to continue...
