Umix (User-Mode Unix) CSE120 Instructional OS v. 2.37 [11/16/13-7:53PM] 24574

  0 1 2 3 4 5 6 7 8 9 
0 0 0 0 0 1 1 0 0 1 1 
1 0 0 0 0 0 0 0 0 0 1 
2 1 1 0 0 0 0 0 0 0 0 
3 0 0 0 0 0 0 0 0 0 1 
4 1 0 0 0 0 0 1 1 0 1 
5 1 0 0 1 0 0 0 0 0 0 
6 0 1 0 0 0 0 0 0 0 1 
7 0 1 0 0 0 0 1 0 1 0 
8 0 0 1 0 0 0 1 1 0 0 
9 0 0 0 0 1 0 0 0 1 0 

Source: 0
Test 4: 1
Test 5: 1
Test 8: 1
Test 9: 1
Test 6: 2
Test 7: 2
Test 3: 2
Test 2: 2
Test 1: 3

Source: 1
Test 9: 1
Test 4: 2
Test 8: 2
Test 0: 3
Test 6: 3
Test 7: 3
Test 2: 3
Test 5: 4
Test 3: 5

Source: 2
Test 0: 1
Test 1: 1
Test 4: 2
Test 5: 2
Test 8: 2
Test 9: 2
Test 6: 3
Test 7: 3
Test 3: 3

Source: 3
Test 9: 1
Test 4: 2
Test 8: 2
Test 0: 3
Test 6: 3
Test 7: 3
Test 2: 3
Test 5: 4
Test 1: 4

Source: 4
Test 0: 1
Test 6: 1
Test 7: 1
Test 9: 1
Test 5: 2
Test 8: 2
Test 1: 2
Test 3: 3
Test 2: 3

Source: 5
Test 0: 1
Test 3: 1
Test 4: 2
Test 8: 2
Test 9: 2
Test 6: 3
Test 7: 3
Test 2: 3
Test 1: 4

Source: 6
Test 1: 1
Test 9: 1
Test 4: 2
Test 8: 2
Test 0: 3
Test 7: 3
Test 2: 3
Test 5: 4
Test 3: 5

Source: 7
Test 1: 1
Test 6: 1
Test 8: 1
Test 9: 2
Test 2: 2
Test 4: 3
Test 0: 3
Test 5: 4
Test 3: 5

Source: 8
Test 2: 1
Test 6: 1
Test 7: 1
Test 0: 2
Test 1: 2
Test 9: 2
Test 4: 3
Test 5: 3
Test 3: 4

Source: 9
Test 4: 1
Test 8: 1
Test 0: 2
Test 6: 2
Test 7: 2
Test 2: 2
Test 5: 3
Test 1: 3
Test 3: 4

Source: 10
Test 4: 0
Test 5: 0
Test 8: 0
Test 9: 0
Test 0: 1
Test 6: 1
Test 7: 1
Test 3: 1
Test 2: 1
Test 1: 2


System exiting (normal)
