0 2 4 6 8 10 12 14 16 1 3 5 7 9 11 13 15 0 2 4 
early out
0 0 1 2 2 3 4 4 5 6 7 8 9 10 11 12 13 14 15 16 
40 38 36 34 32 30 28 26 24 22 20 18 16 14 12 10 8 6 4 2 
2 4 6 8 10 12 14 16 18 20 22 24 26 28 30 32 34 36 38 40 
